Math 530/630 CM 4.2 - lab
…
1.1 EDA

Height is in self-reported height in centimeters.

How many unique heights are there?

How many men were 103 cm?

How about 231 cm?

male_heights %>% 
  count(HTM4) %>% 
  arrange(desc(HTM4))

## # A tibble: 88 x 2
##     HTM4     n
##    <dbl> <int>
##  1   231     1
##  2   229     3
##  3   226     2
##  4   224     1
##  5   221     3
##  6   218     4
##  7   216     6
##  8   213    15
##  9   211    27
## 10   208    42
## # ... with 78 more rows
…
