Math 530/630: CM 2.5
…
---
## Leverage

```r
hate_diag %>% 
  select(state, .hat) %>%
  arrange(desc(.hat))
```

```
# A tibble: 50 x 2
   state                  .hat
   <chr>                 <dbl>
 1 District of Columbia 0.306 
 2 New York             0.122 
 3 Utah                 0.112 
 4 New Hampshire        0.0913
 5 Alaska               0.0797
 6 Connecticut          0.0787
 7 Wyoming              0.0770
 8 Wisconsin            0.0768
 9 Louisiana            0.0684
10 Iowa                 0.0671
# ... with 40 more rows
```
…
