Linear Regression
…
Go back to the output from the summary() function: how does the output of broom::tidy() differ from that of summary()?

[your answer goes here]

Examine the observations

Use broom::augment to examine the observation-level statistics like fitted values, residuals, etc. Here, each row is an observation in the original dataset so it is tidy.

augment(admod)

## # A tibble: 200 x 9
##    sales    tv .fitted .se.fit .resid    .hat .sigma   .cooksd .std.resid
##    <dbl> <dbl>   <dbl>   <dbl>  <dbl>   <dbl>  <dbl>     <dbl>      <dbl>
##  1  22.1 230.    18.0    0.321  4.13  0.00970   3.25 0.00794       1.27  
##  2  10.4  44.5    9.15   0.359  1.25  0.0122    3.27 0.000920      0.387 
##  3   9.3  17.2    7.85   0.419  1.45  0.0165    3.27 0.00169       0.449 
##  4  18.5 152.    14.2    0.231  4.27  0.00501   3.25 0.00434       1.31  
##  5  12.9 181.    15.6    0.248 -2.73  0.00578   3.26 0.00205      -0.839 
##  6   7.2   8.7    7.45   0.438 -0.246 0.0180    3.27 0.0000534    -0.0762
##  7  11.8  57.5    9.77   0.333  2.03  0.0105    3.26 0.00208       0.627 
##  8  13.2 120.    12.7    0.241  0.454 0.00549   3.27 0.0000538     0.140 
##  9   4.8   8.6    7.44   0.438 -2.64  0.0181    3.26 0.00616      -0.818 
## 10  10.6 200.    16.5    0.271 -5.93  0.00690   3.24 0.0116       -1.83  
## # ... with 190 more rows
…
