…
```r
set.seed(2018)
sn1 <- sneetches_tidy %>% 
  specify(SSI ~ group) %>% 
  hypothesize(null = "independence") %>% 
  generate(reps = 1, type = "permute")

sn1
```

```
Response: SSI (numeric)
Explanatory: group (factor)
Null Hypothesis: independence
# A tibble: 40 x 3
# Groups:   replicate [1]
     SSI group replicate
   <dbl> <fct>     <int>
 1    77 stars         1
 2    63 stars         1
 3    99 stars         1
 4    74 stars         1
 5    66 stars         1
 6    85 stars         1
 7    91 stars         1
 8    70 stars         1
 9    66 stars         1
10    61 stars         1
# ... with 30 more rows
```
…
