Math 530/630 CM 4.2
…
--

.pull-left[

```r
resamp_heights %>% 
  count(replicate)
```

```
# A tibble: 1,000 x 2
# Groups:   replicate [1,000]
   replicate     n
       <int> <int>
 1         1    12
 2         2    12
 3         3    12
 4         4    12
 5         5    12
 6         6    12
 7         7    12
 8         8    12
 9         9    12
10        10    12
# ... with 990 more rows
```
]

.pull-right[

```r
resamp_heights %>% 
  group_by(replicate) %>% 
  summarize(xbar = mean(Height))
```

```
# A tibble: 1,000 x 2
   replicate   xbar
       <int>  <dbl>
 1         1 174.25
 2         2 171.17
 3         3 172.58
 4         4 169.42
 5         5 179.67
 6         6 177.08
 7         7 170.92
 8         8 174.67
 9         9 171.42
10        10 173.25
# ... with 990 more rows
```
…
